Lab3/simulation/qsim/LogicalStep_Lab3.msim.vcd
$comment
	File created using the following command:
		vcd file LogicalStep_Lab3.msim.vcd -direction
$end
$date
	Fri Mar 11 16:21:19 2022
$end
$version
	ModelSim Version 10.5b
$end
$timescale
	1ps
$end

$scope module logicalstep_lab3_top_vhd_vec_tst $end
$var wire 1 ! clkin_50 $end
$var wire 1 " HVAC_temp [3] $end
$var wire 1 # HVAC_temp [2] $end
$var wire 1 $ HVAC_temp [1] $end
$var wire 1 % HVAC_temp [0] $end
$var wire 1 & leds [7] $end
$var wire 1 ' leds [6] $end
$var wire 1 ( leds [5] $end
$var wire 1 ) leds [4] $end
$var wire 1 * leds [3] $end
$var wire 1 + leds [2] $end
$var wire 1 , leds [1] $end
$var wire 1 - leds [0] $end
$var wire 1 . pb_n [3] $end
$var wire 1 / pb_n [2] $end
$var wire 1 0 pb_n [1] $end
$var wire 1 1 pb_n [0] $end
$var wire 1 2 seg7_char1 $end
$var wire 1 3 seg7_char2 $end
$var wire 1 4 seg7_data [6] $end
$var wire 1 5 seg7_data [5] $end
$var wire 1 6 seg7_data [4] $end
$var wire 1 7 seg7_data [3] $end
$var wire 1 8 seg7_data [2] $end
$var wire 1 9 seg7_data [1] $end
$var wire 1 : seg7_data [0] $end
$var wire 1 ; sw [7] $end
$var wire 1 < sw [6] $end
$var wire 1 = sw [5] $end
$var wire 1 > sw [4] $end
$var wire 1 ? sw [3] $end
$var wire 1 @ sw [2] $end
$var wire 1 A sw [1] $end
$var wire 1 B sw [0] $end

$scope module i1 $end
$var wire 1 C gnd $end
$var wire 1 D vcc $end
$var wire 1 E unknown $end
$var wire 1 F devoe $end
$var wire 1 G devclrn $end
$var wire 1 H devpor $end
$var wire 1 I ww_devoe $end
$var wire 1 J ww_devclrn $end
$var wire 1 K ww_devpor $end
$var wire 1 L ww_clkin_50 $end
$var wire 1 M ww_pb_n [3] $end
$var wire 1 N ww_pb_n [2] $end
$var wire 1 O ww_pb_n [1] $end
$var wire 1 P ww_pb_n [0] $end
$var wire 1 Q ww_sw [7] $end
$var wire 1 R ww_sw [6] $end
$var wire 1 S ww_sw [5] $end
$var wire 1 T ww_sw [4] $end
$var wire 1 U ww_sw [3] $end
$var wire 1 V ww_sw [2] $end
$var wire 1 W ww_sw [1] $end
$var wire 1 X ww_sw [0] $end
$var wire 1 Y ww_HVAC_temp [3] $end
$var wire 1 Z ww_HVAC_temp [2] $end
$var wire 1 [ ww_HVAC_temp [1] $end
$var wire 1 \ ww_HVAC_temp [0] $end
$var wire 1 ] ww_leds [7] $end
$var wire 1 ^ ww_leds [6] $end
$var wire 1 _ ww_leds [5] $end
$var wire 1 ` ww_leds [4] $end
$var wire 1 a ww_leds [3] $end
$var wire 1 b ww_leds [2] $end
$var wire 1 c ww_leds [1] $end
$var wire 1 d ww_leds [0] $end
$var wire 1 e ww_seg7_data [6] $end
$var wire 1 f ww_seg7_data [5] $end
$var wire 1 g ww_seg7_data [4] $end
$var wire 1 h ww_seg7_data [3] $end
$var wire 1 i ww_seg7_data [2] $end
$var wire 1 j ww_seg7_data [1] $end
$var wire 1 k ww_seg7_data [0] $end
$var wire 1 l ww_seg7_char1 $end
$var wire 1 m ww_seg7_char2 $end
$var wire 1 n \seg7_data[1]~output_o\ $end
$var wire 1 o \seg7_data[5]~output_o\ $end
$var wire 1 p \seg7_data[6]~output_o\ $end
$var wire 1 q \HVAC_temp[0]~output_o\ $end
$var wire 1 r \HVAC_temp[1]~output_o\ $end
$var wire 1 s \HVAC_temp[2]~output_o\ $end
$var wire 1 t \HVAC_temp[3]~output_o\ $end
$var wire 1 u \leds[0]~output_o\ $end
$var wire 1 v \leds[1]~output_o\ $end
$var wire 1 w \leds[2]~output_o\ $end
$var wire 1 x \leds[3]~output_o\ $end
$var wire 1 y \leds[4]~output_o\ $end
$var wire 1 z \leds[5]~output_o\ $end
$var wire 1 { \leds[6]~output_o\ $end
$var wire 1 | \leds[7]~output_o\ $end
$var wire 1 } \seg7_data[0]~output_o\ $end
$var wire 1 ~ \seg7_data[2]~output_o\ $end
$var wire 1 !! \seg7_data[3]~output_o\ $end
$var wire 1 "! \seg7_data[4]~output_o\ $end
$var wire 1 #! \seg7_char1~output_o\ $end
$var wire 1 $! \seg7_char2~output_o\ $end
$var wire 1 %! \sw[0]~input_o\ $end
$var wire 1 &! \sw[4]~input_o\ $end
$var wire 1 '! \pb_n[3]~input_o\ $end
$var wire 1 (! \instmux|hex_out[0]~3_combout\ $end
$var wire 1 )! \sw[1]~input_o\ $end
$var wire 1 *! \sw[5]~input_o\ $end
$var wire 1 +! \instmux|hex_out[1]~2_combout\ $end
$var wire 1 ,! \sw[2]~input_o\ $end
$var wire 1 -! \sw[6]~input_o\ $end
$var wire 1 .! \instmux|hex_out[2]~1_combout\ $end
$var wire 1 /! \sw[3]~input_o\ $end
$var wire 1 0! \sw[7]~input_o\ $end
$var wire 1 1! \instmux|hex_out[3]~0_combout\ $end
$var wire 1 2! \inst1|Mux5~0_combout\ $end
$var wire 1 3! \clkin_50~input_o\ $end
$var wire 1 4! \instHVAC|Add1~1_cout\ $end
$var wire 1 5! \instHVAC|Add1~2_combout\ $end
$var wire 1 6! \instHVAC|counter:cnt[1]~0_combout\ $end
$var wire 1 7! \instCompx4|A_1|AEQB_n~0_combout\ $end
$var wire 1 8! \instHVAC|Add1~3\ $end
$var wire 1 9! \instHVAC|Add1~4_combout\ $end
$var wire 1 :! \instHVAC|counter:cnt[2]~0_combout\ $end
$var wire 1 ;! \instHVAC|counter:cnt[2]~q\ $end
$var wire 1 <! \instHVAC|Add1~5\ $end
$var wire 1 =! \instHVAC|Add1~6_combout\ $end
$var wire 1 >! \instHVAC|counter:cnt[3]~q\ $end
$var wire 1 ?! \instCompx4|AGTB~2_combout\ $end
$var wire 1 @! \instCompx4|AEQB~0_combout\ $end
$var wire 1 A! \instHVAC|counter:cnt[0]~0_combout\ $end
$var wire 1 B! \instCompx4|ALTB~0_combout\ $end
$var wire 1 C! \instCompx4|ALTB~1_combout\ $end
$var wire 1 D! \instHVAC|counter:cnt[0]~1_combout\ $end
$var wire 1 E! \pb_n[0]~input_o\ $end
$var wire 1 F! \pb_n[1]~input_o\ $end
$var wire 1 G! \pb_n[2]~input_o\ $end
$var wire 1 H! \instEM|blower~1_combout\ $end
$var wire 1 I! \instHVAC|counter:cnt[0]~3_combout\ $end
$var wire 1 J! \instHVAC|counter:cnt[1]~q\ $end
$var wire 1 K! \instHVAC|counter~0_combout\ $end
$var wire 1 L! \instCompx4|AGTB~0_combout\ $end
$var wire 1 M! \instCompx4|AGTB~1_combout\ $end
$var wire 1 N! \instHVAC|counter~1_combout\ $end
$var wire 1 O! \instEM|blower~0_combout\ $end
$var wire 1 P! \instHVAC|counter:cnt[0]~2_combout\ $end
$var wire 1 Q! \instHVAC|counter:cnt[0]~q\ $end
$var wire 1 R! \inst2|Mux5~0_combout\ $end
$var wire 1 S! \inst3|clk_proc:COUNT[0]~0_combout\ $end
$var wire 1 T! \inst3|clk_proc:COUNT[0]~q\ $end
$var wire 1 U! \inst3|clk_proc:COUNT[1]~1_combout\ $end
$var wire 1 V! \inst3|clk_proc:COUNT[1]~q\ $end
$var wire 1 W! \inst3|clk_proc:COUNT[1]~2\ $end
$var wire 1 X! \inst3|clk_proc:COUNT[2]~1_combout\ $end
$var wire 1 Y! \inst3|clk_proc:COUNT[2]~q\ $end
$var wire 1 Z! \inst3|clk_proc:COUNT[2]~2\ $end
$var wire 1 [! \inst3|clk_proc:COUNT[3]~1_combout\ $end
$var wire 1 \! \inst3|clk_proc:COUNT[3]~q\ $end
$var wire 1 ]! \inst3|clk_proc:COUNT[3]~2\ $end
$var wire 1 ^! \inst3|clk_proc:COUNT[4]~1_combout\ $end
$var wire 1 _! \inst3|clk_proc:COUNT[4]~q\ $end
$var wire 1 `! \inst3|clk_proc:COUNT[4]~2\ $end
$var wire 1 a! \inst3|clk_proc:COUNT[5]~1_combout\ $end
$var wire 1 b! \inst3|clk_proc:COUNT[5]~q\ $end
$var wire 1 c! \inst3|clk_proc:COUNT[5]~2\ $end
$var wire 1 d! \inst3|clk_proc:COUNT[6]~1_combout\ $end
$var wire 1 e! \inst3|clk_proc:COUNT[6]~q\ $end
$var wire 1 f! \inst3|clk_proc:COUNT[6]~2\ $end
$var wire 1 g! \inst3|clk_proc:COUNT[7]~1_combout\ $end
$var wire 1 h! \inst3|clk_proc:COUNT[7]~q\ $end
$var wire 1 i! \inst3|clk_proc:COUNT[7]~2\ $end
$var wire 1 j! \inst3|clk_proc:COUNT[8]~1_combout\ $end
$var wire 1 k! \inst3|clk_proc:COUNT[8]~q\ $end
$var wire 1 l! \inst3|clk_proc:COUNT[8]~2\ $end
$var wire 1 m! \inst3|clk_proc:COUNT[9]~1_combout\ $end
$var wire 1 n! \inst3|clk_proc:COUNT[9]~q\ $end
$var wire 1 o! \inst3|clk_proc:COUNT[9]~2\ $end
$var wire 1 p! \inst3|clk_proc:COUNT[10]~1_combout\ $end
$var wire 1 q! \inst3|clk_proc:COUNT[10]~q\ $end
$var wire 1 r! \inst3|DOUT_TEMP[1]~0_combout\ $end
$var wire 1 s! \inst1|Mux1~0_combout\ $end
$var wire 1 t! \inst2|Mux1~0_combout\ $end
$var wire 1 u! \inst3|DOUT_TEMP[5]~1_combout\ $end
$var wire 1 v! \inst1|Mux0~0_combout\ $end
$var wire 1 w! \inst2|Mux0~0_combout\ $end
$var wire 1 x! \inst3|DOUT_TEMP[6]~2_combout\ $end
$var wire 1 y! \instCompx4|AGTB~3_combout\ $end
$var wire 1 z! \instCompx4|ALTB~2_combout\ $end
$var wire 1 {! \insttester|TEST_PASS~0_combout\ $end
$var wire 1 |! \insttester|TEST_PASS~1_combout\ $end
$var wire 1 }! \insttester|TEST_PASS~2_combout\ $end
$var wire 1 ~! \insttester|TEST_PASS~3_combout\ $end
$var wire 1 !" \insttester|TEST_PASS~4_combout\ $end
$var wire 1 "" \insttester|TEST_PASS~5_combout\ $end
$var wire 1 #" \insttester|TEST_PASS~6_combout\ $end
$var wire 1 $" \insttester|TEST_PASS~7_combout\ $end
$var wire 1 %" \insttester|TEST_PASS~8_combout\ $end
$var wire 1 &" \insttester|TEST_PASS~9_combout\ $end
$var wire 1 '" \insttester|TEST_PASS~10_combout\ $end
$var wire 1 (" \inst1|Mux6~0_combout\ $end
$var wire 1 )" \inst2|Mux6~0_combout\ $end
$var wire 1 *" \inst3|DOUT[0]~0_combout\ $end
$var wire 1 +" \inst1|Mux4~0_combout\ $end
$var wire 1 ," \inst2|Mux4~0_combout\ $end
$var wire 1 -" \inst3|DOUT[2]~2_combout\ $end
$var wire 1 ." \inst1|Mux3~0_combout\ $end
$var wire 1 /" \inst2|Mux3~0_combout\ $end
$var wire 1 0" \inst3|DOUT[3]~3_combout\ $end
$var wire 1 1" \inst1|Mux2~0_combout\ $end
$var wire 1 2" \inst2|Mux2~0_combout\ $end
$var wire 1 3" \inst3|DOUT[4]~4_combout\ $end
$var wire 1 4" \inst3|ALT_INV_DOUT[0]~0_combout\ $end
$var wire 1 5" \instEM|ALT_INV_blower~0_combout\ $end
$var wire 1 6" \instCompx4|ALT_INV_AEQB~0_combout\ $end
$var wire 1 7" \instHVAC|ALT_INV_counter:cnt[2]~q\ $end
$var wire 1 8" \instHVAC|ALT_INV_counter:cnt[1]~q\ $end
$var wire 1 9" \instHVAC|ALT_INV_counter:cnt[0]~q\ $end
$var wire 1 :" \inst3|ALT_INV_clk_proc:COUNT[10]~q\ $end
$var wire 1 ;" \ALT_INV_pb_n[1]~input_o\ $end
$var wire 1 <" \ALT_INV_pb_n[0]~input_o\ $end
$var wire 1 =" \ALT_INV_pb_n[3]~input_o\ $end
$var wire 1 >" \inst3|ALT_INV_DOUT[4]~4_combout\ $end
$var wire 1 ?" \inst3|ALT_INV_DOUT[3]~3_combout\ $end
$var wire 1 @" \inst3|ALT_INV_DOUT[2]~2_combout\ $end
$upscope $end
$upscope $end
$enddefinitions $end
#0
$dumpvars
0!
12
03
0C
1D
xE
1F
1G
1H
1I
1J
1K
0L
1l
0m
zn
0o
0p
1q
1r
1s
0t
0u
1v
0w
0x
0y
0z
0{
0|
1}
1~
0!!
0"!
1#!
0$!
1%!
0&!
1'!
1(!
1)!
0*!
1+!
1,!
1-!
1.!
0/!
10!
01!
02!
03!
14!
15!
06!
07!
08!
19!
0:!
0;!
1<!
0=!
0>!
1?!
0@!
1A!
0B!
0C!
0D!
1E!
1F!
1G!
0H!
0I!
0J!
1K!
0L!
0M!
0N!
1O!
0P!
0Q!
0R!
1S!
0T!
0U!
0V!
0W!
0X!
0Y!
1Z!
0[!
0\!
0]!
0^!
0_!
1`!
0a!
0b!
0c!
0d!
0e!
1f!
0g!
0h!
0i!
0j!
0k!
1l!
0m!
0n!
0o!
0p!
0q!
1r!
1s!
1t!
0u!
0v!
0w!
0x!
0y!
0z!
1{!
1|!
0}!
0~!
0!"
0""
0#"
1$"
1%"
1&"
0'"
0("
0)"
0*"
0+"
0,"
0-"
1."
1/"
10"
11"
12"
13"
14"
05"
16"
17"
18"
19"
1:"
0;"
0<"
0="
0>"
0?"
1@"
1.
1/
10
11
1;
1<
0=
0>
0?
1@
1A
1B
1M
1N
1O
1P
1Q
1R
0S
0T
0U
1V
1W
1X
0Y
1Z
1[
1\
0]
0^
0_
0`
0a
0b
1c
0d
0e
0f
0g
0h
1i
zj
1k
0"
1#
1$
1%
0&
0'
0(
0)
0*
0+
1,
0-
04
05
06
07
18
z9
1:
$end
#10000
1!
1L
13!
1T!
0S!
1U!
#20000
0!
0/
0L
0N
0G!
03!
1H!
1'"
1{
1^
1'
#30000
1!
1L
13!
0T!
1V!
1S!
#40000
0!
0L
03!
#50000
1!
1L
13!
1T!
0S!
0U!
1W!
1X!
#60000
0!
0L
03!
#70000
1!
1L
13!
0T!
0V!
1Y!
0X!
0Z!
1S!
0W!
1X!
1Z!
1[!
0[!
#80000
0!
0L
03!
#90000
1!
1L
13!
1T!
0S!
1U!
#100000
0!
1/
0L
1N
1G!
03!
0H!
0'"
0{
0^
0'
#110000
1!
1L
13!
0T!
1V!
1S!
#120000
0!
0L
03!
#130000
1!
1L
13!
1T!
0S!
0U!
1W!
0X!
0Z!
1[!
#140000
0!
0L
03!
#150000
1!
1L
13!
0T!
0V!
0Y!
1\!
0[!
1]!
1X!
1Z!
1S!
0W!
0X!
1[!
0]!
1^!
0^!
#160000
0!
0L
03!
#170000
1!
1L
13!
1T!
0S!
1U!
#180000
0!
0L
03!
#190000
1!
1L
13!
0T!
1V!
1S!
#200000
0!
0L
03!
#210000
1!
1L
13!
1T!
0S!
0U!
1W!
1X!
#220000
0!
0L
03!
#230000
1!
1L
13!
0T!
0V!
1Y!
0X!
0Z!
1S!
0W!
1X!
1Z!
0[!
1]!
1^!
1[!
0]!
0^!
#240000
0!
0L
03!
#250000
1!
1L
13!
1T!
0S!
1U!
#260000
0!
0L
03!
#270000
1!
1L
13!
0T!
1V!
1S!
#280000
0!
0L
03!
#290000
1!
1L
13!
1T!
0S!
0U!
1W!
0X!
0Z!
0[!
1]!
1^!
#300000
0!
0.
0L
0M
0'!
03!
1="
0(!
0+!
11!
17!
1|
0?!
1L!
12!
1@!
1C!
0s!
1+"
0."
01"
1]
06"
1&
0O!
0&"
1N!
1y!
0v
15"
1u
05!
09!
1=!
1I!
1P!
0c
1x
1d
0,
1:!
16!
1a
1-
1*
#310000
1!
1L
13!
1;!
1>!
1J!
1Q!
0T!
0V!
0Y!
0\!
1_!
09"
08"
07"
1t
0^!
0`!
1[!
0]!
1X!
1Z!
1S!
0W!
04!
0P!
15!
18!
07!
0C!
1~!
0%"
0=!
19!
0<!
0t!
1w!
1!"
0$"
0/"
02"
0s
0r
0q
1Y
03"
00"
1x!
1u!
1=!
0:!
09!
06!
05!
0X!
0[!
1^!
1`!
1a!
0Z
0[
0\
1"
1?"
1>"
0%
0$
0#
zo
zp
0a!
16!
1:!
1"!
1!!
zf
ze
1g
1h
z5
z4
17
16
#320000
0!
0L
03!
#330000
1!
1L
13!
0Q!
1T!
19"
0S!
1U!
14!
1C!
1P!
12"
1q
13"
15!
1\
0>"
1%
06!
0"!
0g
06
#340000
0!
0L
03!
#350000
1!
1L
13!
0J!
1Q!
0T!
1V!
09"
18"
1S!
04!
0P!
05!
08!
17!
1/"
02"
1r
0q
03"
10"
19!
16!
15!
18!
1[
0\
0?"
1>"
0%
1$
09!
06!
0:!
1"!
0!!
1:!
1g
0h
07
16
#360000
0!
0/
0L
0N
0G!
03!
1H!
1O!
05"
1P!
0I!
0x
0a
0*
#370000
1!
1L
13!
1T!
0S!
0U!
1W!
1X!
#380000
0!
0L
03!
#390000
1!
1L
13!
0T!
0V!
1Y!
0X!
0Z!
1S!
0W!
1X!
1Z!
1[!
0[!
#400000
0!
0L
03!
#410000
1!
1L
13!
1T!
0S!
1U!
#420000
0!
0L
03!
#430000
1!
1L
13!
0T!
1V!
1S!
#440000
0!
1/
0L
1N
1G!
03!
0H!
0O!
15"
0P!
1I!
1x
1a
1*
#450000
1!
1L
13!
0Q!
1T!
19"
0S!
0U!
1W!
14!
1P!
1R!
0~!
1%"
1)"
0/"
1q
00"
1*"
0r!
05!
08!
0X!
0Z!
1\
04"
1?"
1%
0n
1[!
19!
16!
1!!
0}
0j
0:!
1h
0k
09
0:
17
#460000
0!
0L
03!
#470000
1!
1L
13!
0;!
1J!
1Q!
0T!
0V!
0Y!
1\!
09"
08"
17"
0[!
1]!
1X!
1Z!
1S!
0W!
04!
0P!
15!
18!
07!
0C!
1~!
0%"
09!
1<!
1?!
0L!
0w!
0!"
0)"
1,"
1s
0r
0q
1-"
0*"
0x!
0N!
0y!
0=!
1:!
1!"
0@!
19!
0<!
06!
05!
0X!
1[!
0]!
0^!
0`!
1Z
0[
0\
16"
14"
0@"
0%
0$
1#
0u
0p
1a!
1^!
1`!
16!
0:!
1O!
15!
09!
1<!
0I!
1P!
0~
1}
1v
05"
0d
0e
1=!
1:!
06!
0a!
0i
1k
1c
0-
04
0x
1:
08
1,
0a
0*
#480000
0!
0L
03!
#490000
1!
1L
13!
1T!
0S!
1U!
#500000
0!
1.
1?
0B
0;
0<
1=
0L
1M
0X
1U
1S
0R
0Q
00!
0-!
1*!
1/!
0%!
1'!
03!
0="
1""
1$"
1+!
17!
0|
1@!
1M!
1v!
0]
06"
0&
1N!
1y!
1#"
0O!
0v
15"
1u
1&"
05!
19!
0<!
0=!
1I!
0P!
0c
1x
1d
0,
1=!
0:!
16!
1a
1-
1*
#510000
1!
1L
13!
0Q!
0T!
1V!
19"
1S!
14!
1P!
0R!
1t!
1w!
1)"
0,"
1q
0-"
1*"
1x!
0u!
1r!
15!
1\
04"
1@"
1%
zn
0o
zp
06!
1~
0}
zj
0f
ze
1i
0k
z9
05
z4
0:
18
#520000
0!
0L
03!
#530000
1!
1L
13!
0J!
1Q!
1T!
09"
18"
0S!
0U!
1W!
04!
0P!
05!
08!
07!
0M!
1R!
0t!
0~!
1%"
0)"
1,"
1r
0q
1-"
0*"
0!"
1u!
0r!
0N!
0y!
0#"
0@!
09!
1<!
16!
15!
18!
1X!
1[
0\
16"
14"
0@"
0%
1$
0u
0n
zo
06!
1:!
1O!
05!
08!
0I!
1P!
0""
0~
1}
1v
05"
0d
0j
zf
19!
16!
0i
1k
1c
0-
09
z5
0x
1:
08
1,
0:!
0a
0*
#540000
0!
0/
0L
0N
0G!
03!
1H!
1'"
1{
1^
1'
#550000
1!
1L
13!
0T!
0V!
1Y!
0X!
0Z!
1S!
0W!
1X!
1Z!
0[!
1]!
0^!
0`!
1[!
0]!
1^!
1`!
1a!
0a!
#560000
0!
0L
03!
#570000
1!
1L
13!
1T!
0S!
1U!
#580000
0!
0L
03!
#590000
1!
1L
13!
0T!
1V!
1S!
#600000
0!
0L
03!
#610000
1!
1L
13!
1T!
0S!
0U!
1W!
0X!
0Z!
0[!
1]!
0^!
0`!
1a!
#620000
0!
1/
0L
1N
1G!
03!
0H!
0'"
0{
0^
0'
#630000
1!
1L
13!
0T!
0V!
0Y!
0\!
0_!
1b!
0a!
1c!
1^!
1`!
1[!
0]!
1X!
1Z!
1S!
0W!
0X!
0[!
0^!
1a!
0c!
1d!
0d!
#640000
0!
0L
03!
#650000
1!
1L
13!
1T!
0S!
1U!
#660000
0!
0L
03!
#670000
1!
1L
13!
0T!
1V!
1S!
#680000
0!
0L
03!
#690000
1!
1L
13!
1T!
0S!
0U!
1W!
1X!
#700000
0!
0.
0L
0M
0'!
03!
1="
0.!
01!
1|
02!
0?!
1B!
1s!
1]
1&
1@!
1D!
1z!
06"
1w
1I!
0O!
0&"
0v
15"
1b
0P!
0c
1+
1x
0,
1a
1*
#710000
1!
1L
13!
1J!
0Q!
0T!
0V!
1Y!
19"
08"
0X!
0Z!
1S!
0W!
14!
1P!
15!
18!
17!
1M!
0R!
1t!
1~!
0%"
1)"
0,"
0r
1q
0-"
1*"
1!"
0u!
1r!
09!
06!
05!
08!
1X!
1Z!
1[!
0[
1\
04"
1@"
1%
0$
zn
0o
0[!
19!
16!
1:!
1""
1~
0}
zj
0f
0:!
1i
0k
z9
05
0:
18
#720000
0!
0L
03!
#730000
1!
1L
13!
1Q!
1T!
09"
0S!
1U!
04!
0P!
1R!
0t!
0w!
0)"
1,"
0q
1-"
0*"
0x!
1u!
0r!
15!
18!
0\
14"
0@"
0%
0n
zo
0p
09!
06!
0~
1}
0j
zf
0e
1:!
0i
1k
09
z5
04
1:
08
#740000
0!
0L
03!
#750000
1!
1L
13!
1;!
0J!
0Q!
0T!
1V!
19"
18"
07"
1S!
14!
1P!
05!
08!
07!
1C!
0M!
0{!
0~!
19!
0<!
1w!
0$"
1)"
0,"
0s
1r
1q
0-"
1*"
1x!
0=!
0:!
09!
1<!
16!
15!
0Z
1[
1\
04"
1@"
1%
1$
0#
zp
06!
1=!
1:!
1~
0}
ze
1i
0k
z4
0:
18
#760000
0!
0/
0L
0N
0G!
03!
1H!
1O!
05"
0P!
0I!
0x
0a
0*
#770000
1!
1L
13!
1T!
0S!
0U!
1W!
0X!
0Z!
1[!
#780000
0!
0L
03!
#790000
1!
1L
13!
0T!
0V!
0Y!
1\!
0[!
1]!
1X!
1Z!
1S!
0W!
0X!
1[!
0]!
1^!
0^!
#800000
0!
0L
03!
#810000
1!
1L
13!
1T!
0S!
1U!
#820000
0!
0L
03!
#830000
1!
1L
13!
0T!
1V!
1S!
#840000
0!
1/
0L
1N
1G!
03!
0H!
0O!
15"
1P!
1I!
1x
1a
1*
#850000
1!
1L
13!
1Q!
1T!
09"
0S!
0U!
1W!
04!
0C!
0P!
0R!
1{!
1%"
0)"
1/"
0q
10"
0*"
1r!
05!
1X!
0\
14"
0?"
0%
zn
16!
0!!
1}
zj
0h
1k
z9
1:
07
#860000
0!
0L
03!
#870000
1!
1L
13!
1J!
0Q!
0T!
0V!
1Y!
19"
08"
0X!
0Z!
1S!
0W!
14!
1P!
15!
18!
17!
1M!
1~!
0%"
0/"
12"
0r
1q
13"
00"
19!
0<!
06!
05!
08!
1X!
1Z!
0[!
1]!
0[
1\
1?"
0>"
1%
0$
1^!
1[!
0]!
09!
1<!
16!
0=!
0:!
0"!
1!!
1=!
1:!
0^!
0g
1h
17
06
#880000
0!
0L
03!
#890000
1!
1L
13!
1Q!
1T!
09"
0S!
1U!
04!
0P!
02"
0q
03"
15!
18!
0\
1>"
0%
19!
0<!
06!
1"!
0=!
0:!
1g
16
#900000
0!
0L
03!
#910000
1!
1L
13!
0;!
0>!
0J!
0Q!
0T!
1V!
19"
18"
17"
0t
1S!
14!
1P!
05!
08!
07!
1C!
0M!
0{!
0~!
1=!
09!
1<!
1t!
0w!
1/"
12"
1s
1r
1q
0Y
13"
10"
0x!
0u!
0=!
1:!
0!"
0|!
19!
16!
15!
1Z
1[
1\
0"
0?"
0>"
1%
1$
1#
0o
0p
06!
0:!
0"!
0!!
0f
0e
0g
0h
05
04
07
06
#920000
0!
0L
03!
#930000
1!
1L
13!
1Q!
1T!
09"
0S!
0U!
1W!
04!
0C!
0P!
1R!
0t!
1w!
1{!
1%"
0/"
02"
0q
03"
00"
1|!
1x!
1u!
0r!
05!
0X!
0Z!
0\
1?"
1>"
0%
0n
zo
zp
0[!
1]!
16!
1"!
1!!
0j
zf
ze
1^!
1g
1h
09
z5
z4
17
16
#940000
0!
0L
03!
#950000
1!
1L
13!
1J!
0Q!
0T!
0V!
0Y!
0\!
1_!
19"
08"
0^!
0`!
1[!
0]!
1X!
1Z!
1S!
0W!
14!
1P!
15!
18!
17!
1M!
1~!
0%"
12"
0r
1q
13"
1!"
09!
06!
05!
08!
0X!
0[!
1^!
1`!
0a!
1c!
0[
1\
0>"
1%
0$
1d!
1a!
0c!
19!
16!
1:!
0"!
0:!
0d!
0g
06
#960000
0!
0L
03!
#970000
1!
1L
13!
1Q!
1T!
09"
0S!
1U!
04!
0P!
0R!
1)"
1/"
0q
10"
1*"
1r!
15!
18!
0\
04"
0?"
0%
zn
09!
06!
0!!
0}
zj
1:!
0h
0k
z9
0:
07
#980000
0!
0L
03!
#990000
1!
1L
13!
1;!
0J!
0Q!
0T!
1V!
19"
18"
07"
1S!
14!
1P!
05!
08!
07!
1C!
0M!
0{!
0~!
19!
0<!
1?!
0B!
1t!
0)"
0/"
0s
1r
1q
00"
0*"
0u!
1=!
0:!
09!
1<!
16!
15!
0Z
1[
1\
14"
1?"
1%
1$
0#
0o
06!
0=!
1:!
1!!
1}
0f
1h
1k
05
1:
17
