Lab 4/simulation/qsim/LogicalStep_Lab4.msim.vcd
$comment
	File created using the following command:
		vcd file LogicalStep_Lab4.msim.vcd -direction
$end
$date
	Wed Mar 30 17:33:14 2022
$end
$version
	ModelSim Version 10.5b
$end
$timescale
	1ps
$end

$scope module logicalstep_lab4_top_vhd_vec_tst $end
$var wire 1 ! Clk $end
$var wire 1 " clk_ext_out $end
$var wire 1 # extender_en_out $end
$var wire 1 $ extender_out_out $end
$var wire 1 % leds [7] $end
$var wire 1 & leds [6] $end
$var wire 1 ' leds [5] $end
$var wire 1 ( leds [4] $end
$var wire 1 ) leds [3] $end
$var wire 1 * leds [2] $end
$var wire 1 + leds [1] $end
$var wire 1 , leds [0] $end
$var wire 1 - left_right_out $end
$var wire 1 . pb_n [3] $end
$var wire 1 / pb_n [2] $end
$var wire 1 0 pb_n [1] $end
$var wire 1 1 pb_n [0] $end
$var wire 1 2 seg7_char1 $end
$var wire 1 3 seg7_char2 $end
$var wire 1 4 seg7_data [6] $end
$var wire 1 5 seg7_data [5] $end
$var wire 1 6 seg7_data [4] $end
$var wire 1 7 seg7_data [3] $end
$var wire 1 8 seg7_data [2] $end
$var wire 1 9 seg7_data [1] $end
$var wire 1 : seg7_data [0] $end
$var wire 1 ; sw [7] $end
$var wire 1 < sw [6] $end
$var wire 1 = sw [5] $end
$var wire 1 > sw [4] $end
$var wire 1 ? sw [3] $end
$var wire 1 @ sw [2] $end
$var wire 1 A sw [1] $end
$var wire 1 B sw [0] $end
$var wire 1 C xPOS [3] $end
$var wire 1 D xPOS [2] $end
$var wire 1 E xPOS [1] $end
$var wire 1 F xPOS [0] $end
$var wire 1 G xreg [3] $end
$var wire 1 H xreg [2] $end
$var wire 1 I xreg [1] $end
$var wire 1 J xreg [0] $end
$var wire 1 K yPOS [3] $end
$var wire 1 L yPOS [2] $end
$var wire 1 M yPOS [1] $end
$var wire 1 N yPOS [0] $end
$var wire 1 O yreg [3] $end
$var wire 1 P yreg [2] $end
$var wire 1 Q yreg [1] $end
$var wire 1 R yreg [0] $end

$scope module i1 $end
$var wire 1 S gnd $end
$var wire 1 T vcc $end
$var wire 1 U unknown $end
$var wire 1 V devoe $end
$var wire 1 W devclrn $end
$var wire 1 X devpor $end
$var wire 1 Y ww_devoe $end
$var wire 1 Z ww_devclrn $end
$var wire 1 [ ww_devpor $end
$var wire 1 \ ww_Clk $end
$var wire 1 ] ww_pb_n [3] $end
$var wire 1 ^ ww_pb_n [2] $end
$var wire 1 _ ww_pb_n [1] $end
$var wire 1 ` ww_pb_n [0] $end
$var wire 1 a ww_sw [7] $end
$var wire 1 b ww_sw [6] $end
$var wire 1 c ww_sw [5] $end
$var wire 1 d ww_sw [4] $end
$var wire 1 e ww_sw [3] $end
$var wire 1 f ww_sw [2] $end
$var wire 1 g ww_sw [1] $end
$var wire 1 h ww_sw [0] $end
$var wire 1 i ww_leds [7] $end
$var wire 1 j ww_leds [6] $end
$var wire 1 k ww_leds [5] $end
$var wire 1 l ww_leds [4] $end
$var wire 1 m ww_leds [3] $end
$var wire 1 n ww_leds [2] $end
$var wire 1 o ww_leds [1] $end
$var wire 1 p ww_leds [0] $end
$var wire 1 q ww_xreg [3] $end
$var wire 1 r ww_xreg [2] $end
$var wire 1 s ww_xreg [1] $end
$var wire 1 t ww_xreg [0] $end
$var wire 1 u ww_yreg [3] $end
$var wire 1 v ww_yreg [2] $end
$var wire 1 w ww_yreg [1] $end
$var wire 1 x ww_yreg [0] $end
$var wire 1 y ww_xPOS [3] $end
$var wire 1 z ww_xPOS [2] $end
$var wire 1 { ww_xPOS [1] $end
$var wire 1 | ww_xPOS [0] $end
$var wire 1 } ww_yPOS [3] $end
$var wire 1 ~ ww_yPOS [2] $end
$var wire 1 !! ww_yPOS [1] $end
$var wire 1 "! ww_yPOS [0] $end
$var wire 1 #! ww_extender_en_out $end
$var wire 1 $! ww_extender_out_out $end
$var wire 1 %! ww_left_right_out $end
$var wire 1 &! ww_clk_ext_out $end
$var wire 1 '! ww_seg7_data [6] $end
$var wire 1 (! ww_seg7_data [5] $end
$var wire 1 )! ww_seg7_data [4] $end
$var wire 1 *! ww_seg7_data [3] $end
$var wire 1 +! ww_seg7_data [2] $end
$var wire 1 ,! ww_seg7_data [1] $end
$var wire 1 -! ww_seg7_data [0] $end
$var wire 1 .! ww_seg7_char1 $end
$var wire 1 /! ww_seg7_char2 $end
$var wire 1 0! \seg7_data[1]~output_o\ $end
$var wire 1 1! \seg7_data[5]~output_o\ $end
$var wire 1 2! \seg7_data[6]~output_o\ $end
$var wire 1 3! \leds[0]~output_o\ $end
$var wire 1 4! \leds[1]~output_o\ $end
$var wire 1 5! \leds[2]~output_o\ $end
$var wire 1 6! \leds[3]~output_o\ $end
$var wire 1 7! \leds[4]~output_o\ $end
$var wire 1 8! \leds[5]~output_o\ $end
$var wire 1 9! \leds[6]~output_o\ $end
$var wire 1 :! \leds[7]~output_o\ $end
$var wire 1 ;! \xreg[0]~output_o\ $end
$var wire 1 <! \xreg[1]~output_o\ $end
$var wire 1 =! \xreg[2]~output_o\ $end
$var wire 1 >! \xreg[3]~output_o\ $end
$var wire 1 ?! \yreg[0]~output_o\ $end
$var wire 1 @! \yreg[1]~output_o\ $end
$var wire 1 A! \yreg[2]~output_o\ $end
$var wire 1 B! \yreg[3]~output_o\ $end
$var wire 1 C! \xPOS[0]~output_o\ $end
$var wire 1 D! \xPOS[1]~output_o\ $end
$var wire 1 E! \xPOS[2]~output_o\ $end
$var wire 1 F! \xPOS[3]~output_o\ $end
$var wire 1 G! \yPOS[0]~output_o\ $end
$var wire 1 H! \yPOS[1]~output_o\ $end
$var wire 1 I! \yPOS[2]~output_o\ $end
$var wire 1 J! \yPOS[3]~output_o\ $end
$var wire 1 K! \extender_en_out~output_o\ $end
$var wire 1 L! \extender_out_out~output_o\ $end
$var wire 1 M! \left_right_out~output_o\ $end
$var wire 1 N! \clk_ext_out~output_o\ $end
$var wire 1 O! \seg7_data[0]~output_o\ $end
$var wire 1 P! \seg7_data[2]~output_o\ $end
$var wire 1 Q! \seg7_data[3]~output_o\ $end
$var wire 1 R! \seg7_data[4]~output_o\ $end
$var wire 1 S! \seg7_char1~output_o\ $end
$var wire 1 T! \seg7_char2~output_o\ $end
$var wire 1 U! \Clk~input_o\ $end
$var wire 1 V! \pb_n[2]~input_o\ $end
$var wire 1 W! \sw[5]~input_o\ $end
$var wire 1 X! \pb_n[3]~input_o\ $end
$var wire 1 Y! \inst_extender|Selector2~0_combout\ $end
$var wire 1 Z! \sw[7]~input_o\ $end
$var wire 1 [! \sw[6]~input_o\ $end
$var wire 1 \! \inst_counterx|un_bin_counter[1]~4_cout\ $end
$var wire 1 ]! \inst_counterx|un_bin_counter[1]~5_combout\ $end
$var wire 1 ^! \inst_counterx|un_bin_counter[1]~6\ $end
$var wire 1 _! \inst_counterx|un_bin_counter[2]~7_combout\ $end
$var wire 1 `! \inst_compx|AGTB~0_combout\ $end
$var wire 1 a! \sw[3]~input_o\ $end
$var wire 1 b! \sw[2]~input_o\ $end
$var wire 1 c! \inst_countery|un_bin_counter[0]~11_combout\ $end
$var wire 1 d! \inst_countery|un_bin_counter[1]~4_cout\ $end
$var wire 1 e! \inst_countery|un_bin_counter[1]~5_combout\ $end
$var wire 1 f! \inst_countery|un_bin_counter[1]~6\ $end
$var wire 1 g! \inst_countery|un_bin_counter[2]~8\ $end
$var wire 1 h! \inst_countery|un_bin_counter[3]~9_combout\ $end
$var wire 1 i! \inst_compy|ALTB~1_combout\ $end
$var wire 1 j! \sw[1]~input_o\ $end
$var wire 1 k! \sw[0]~input_o\ $end
$var wire 1 l! \inst_compy|ALTB~2_combout\ $end
$var wire 1 m! \inst_compy|ALTB~3_combout\ $end
$var wire 1 n! \inst_compy|AGTB~0_combout\ $end
$var wire 1 o! \inst_compy|AGTB~1_combout\ $end
$var wire 1 p! \inst_compy|AGTB~2_combout\ $end
$var wire 1 q! \inst_compy|AEQB~0_combout\ $end
$var wire 1 r! \inst_compy|AEQB~combout\ $end
$var wire 1 s! \inst_XY|comb~1_combout\ $end
$var wire 1 t! \inst_XY|clk_eny~2_combout\ $end
$var wire 1 u! \inst_XY|clk_eny~combout\ $end
$var wire 1 v! \inst_XY|up_downy~2_combout\ $end
$var wire 1 w! \inst_XY|process_0~1_combout\ $end
$var wire 1 x! \inst_XY|up_downy~combout\ $end
$var wire 1 y! \inst_countery|process_0~0_combout\ $end
$var wire 1 z! \inst_countery|un_bin_counter[2]~7_combout\ $end
$var wire 1 {! \inst_compy|ALTB~0_combout\ $end
$var wire 1 |! \inst_XY|Capture_XY~0_combout\ $end
$var wire 1 }! \inst_extender|Selector3~1_combout\ $end
$var wire 1 ~! \inst_extender|Selector3~2_combout\ $end
$var wire 1 !" \inst_extender|current_state.left_shift~q\ $end
$var wire 1 "" \inst_extender|Selector0~0_combout\ $end
$var wire 1 #" \inst_extender|Selector0~1_combout\ $end
$var wire 1 $" \pb_n[1]~input_o\ $end
$var wire 1 %" \inst_extender|Selector0~2_combout\ $end
$var wire 1 &" \inst_extender|current_state.Idle~q\ $end
$var wire 1 '" \inst_extender|Selector1~0_combout\ $end
$var wire 1 (" \inst_extender|current_state.Pressed~q\ $end
$var wire 1 )" \inst_extender|Selector3~0_combout\ $end
$var wire 1 *" \inst_extender|Selector2~1_combout\ $end
$var wire 1 +" \inst_extender|current_state.Right_shift~q\ $end
$var wire 1 ," \inst_Bi_shift_reg|sreg~3_combout\ $end
$var wire 1 -" \inst_extender|clk_en~0_combout\ $end
$var wire 1 ." \inst_Bi_shift_reg|sreg~2_combout\ $end
$var wire 1 /" \inst_Bi_shift_reg|sreg~1_combout\ $end
$var wire 1 0" \inst_Bi_shift_reg|sreg~0_combout\ $end
$var wire 1 1" \inst_extender|Equal2~0_combout\ $end
$var wire 1 2" \inst_extender|Selector4~0_combout\ $end
$var wire 1 3" \inst_XY|Capture_XY~combout\ $end
$var wire 1 4" \sw[4]~input_o\ $end
$var wire 1 5" \inst_compx|AEQB~0_combout\ $end
$var wire 1 6" \inst_XY|up_downx~2_combout\ $end
$var wire 1 7" \inst_compx|ALTB~0_combout\ $end
$var wire 1 8" \inst_compx|ALTB~1_combout\ $end
$var wire 1 9" \inst_XY|process_0~0_combout\ $end
$var wire 1 :" \inst_XY|up_downx~combout\ $end
$var wire 1 ;" \inst_counterx|process_0~0_combout\ $end
$var wire 1 <" \inst_counterx|un_bin_counter[2]~8\ $end
$var wire 1 =" \inst_counterx|un_bin_counter[3]~9_combout\ $end
$var wire 1 >" \inst_compx|AGTB~1_combout\ $end
$var wire 1 ?" \inst_compx|AGTB~2_combout\ $end
$var wire 1 @" \inst_compx|AGTB~3_combout\ $end
$var wire 1 A" \inst_compx|ALTB~2_combout\ $end
$var wire 1 B" \inst_compx|AEQB~combout\ $end
$var wire 1 C" \inst_XY|comb~0_combout\ $end
$var wire 1 D" \inst_XY|clk_enx~2_combout\ $end
$var wire 1 E" \inst_XY|clk_enx~combout\ $end
$var wire 1 F" \inst_counterx|un_bin_counter[0]~11_combout\ $end
$var wire 1 G" \inst_sev_secx|Mux5~0_combout\ $end
$var wire 1 H" \inst_sev_secy|Mux5~0_combout\ $end
$var wire 1 I" \inst_sev_mux|clk_proc:COUNT[0]~0_combout\ $end
$var wire 1 J" \inst_sev_mux|clk_proc:COUNT[0]~q\ $end
$var wire 1 K" \inst_sev_mux|clk_proc:COUNT[1]~1_combout\ $end
$var wire 1 L" \inst_sev_mux|clk_proc:COUNT[1]~q\ $end
$var wire 1 M" \inst_sev_mux|clk_proc:COUNT[1]~2\ $end
$var wire 1 N" \inst_sev_mux|clk_proc:COUNT[2]~1_combout\ $end
$var wire 1 O" \inst_sev_mux|clk_proc:COUNT[2]~q\ $end
$var wire 1 P" \inst_sev_mux|clk_proc:COUNT[2]~2\ $end
$var wire 1 Q" \inst_sev_mux|clk_proc:COUNT[3]~1_combout\ $end
$var wire 1 R" \inst_sev_mux|clk_proc:COUNT[3]~q\ $end
$var wire 1 S" \inst_sev_mux|clk_proc:COUNT[3]~2\ $end
$var wire 1 T" \inst_sev_mux|clk_proc:COUNT[4]~1_combout\ $end
$var wire 1 U" \inst_sev_mux|clk_proc:COUNT[4]~q\ $end
$var wire 1 V" \inst_sev_mux|clk_proc:COUNT[4]~2\ $end
$var wire 1 W" \inst_sev_mux|clk_proc:COUNT[5]~1_combout\ $end
$var wire 1 X" \inst_sev_mux|clk_proc:COUNT[5]~q\ $end
$var wire 1 Y" \inst_sev_mux|clk_proc:COUNT[5]~2\ $end
$var wire 1 Z" \inst_sev_mux|clk_proc:COUNT[6]~1_combout\ $end
$var wire 1 [" \inst_sev_mux|clk_proc:COUNT[6]~q\ $end
$var wire 1 \" \inst_sev_mux|clk_proc:COUNT[6]~2\ $end
$var wire 1 ]" \inst_sev_mux|clk_proc:COUNT[7]~1_combout\ $end
$var wire 1 ^" \inst_sev_mux|clk_proc:COUNT[7]~q\ $end
$var wire 1 _" \inst_sev_mux|clk_proc:COUNT[7]~2\ $end
$var wire 1 `" \inst_sev_mux|clk_proc:COUNT[8]~1_combout\ $end
$var wire 1 a" \inst_sev_mux|clk_proc:COUNT[8]~q\ $end
$var wire 1 b" \inst_sev_mux|clk_proc:COUNT[8]~2\ $end
$var wire 1 c" \inst_sev_mux|clk_proc:COUNT[9]~1_combout\ $end
$var wire 1 d" \inst_sev_mux|clk_proc:COUNT[9]~q\ $end
$var wire 1 e" \inst_sev_mux|clk_proc:COUNT[9]~2\ $end
$var wire 1 f" \inst_sev_mux|clk_proc:COUNT[10]~1_combout\ $end
$var wire 1 g" \inst_sev_mux|clk_proc:COUNT[10]~q\ $end
$var wire 1 h" \inst_sev_mux|DOUT_TEMP[1]~0_combout\ $end
$var wire 1 i" \inst_sev_secx|Mux1~0_combout\ $end
$var wire 1 j" \inst_sev_secy|Mux1~0_combout\ $end
$var wire 1 k" \inst_sev_mux|DOUT_TEMP[5]~1_combout\ $end
$var wire 1 l" \inst_sev_secx|Mux0~0_combout\ $end
$var wire 1 m" \inst_sev_secy|Mux0~0_combout\ $end
$var wire 1 n" \inst_sev_mux|DOUT_TEMP[6]~2_combout\ $end
$var wire 1 o" \inst_XY|error~combout\ $end
$var wire 1 p" \pb_n[0]~input_o\ $end
$var wire 1 q" \inst_grappler|next_state.Opening~0_combout\ $end
$var wire 1 r" \inst_extender|Selector5~0_combout\ $end
$var wire 1 s" \inst_grappler|current_state.Opening~q\ $end
$var wire 1 t" \inst_grappler|Selector1~0_combout\ $end
$var wire 1 u" \inst_grappler|current_state.close~q\ $end
$var wire 1 v" \inst_grappler|Selector0~0_combout\ $end
$var wire 1 w" \inst_grappler|current_state.Start~q\ $end
$var wire 1 x" \inst_grappler|next_state.Closing~0_combout\ $end
$var wire 1 y" \inst_grappler|current_state.Closing~q\ $end
$var wire 1 z" \inst_grappler|Grappler_on~0_combout\ $end
$var wire 1 {" \inst_sev_secx|Mux6~0_combout\ $end
$var wire 1 |" \inst_sev_secy|Mux6~0_combout\ $end
$var wire 1 }" \inst_sev_mux|DOUT[0]~0_combout\ $end
$var wire 1 ~" \inst_sev_secx|Mux4~0_combout\ $end
$var wire 1 !# \inst_sev_secy|Mux4~0_combout\ $end
$var wire 1 "# \inst_sev_mux|DOUT[2]~2_combout\ $end
$var wire 1 ## \inst_sev_secx|Mux3~0_combout\ $end
$var wire 1 $# \inst_sev_secy|Mux3~0_combout\ $end
$var wire 1 %# \inst_sev_mux|DOUT[3]~3_combout\ $end
$var wire 1 &# \inst_sev_secx|Mux2~0_combout\ $end
$var wire 1 '# \inst_sev_secy|Mux2~0_combout\ $end
$var wire 1 (# \inst_sev_mux|DOUT[4]~4_combout\ $end
$var wire 1 )# \inst_counterx|un_bin_counter\ [3] $end
$var wire 1 *# \inst_counterx|un_bin_counter\ [2] $end
$var wire 1 +# \inst_counterx|un_bin_counter\ [1] $end
$var wire 1 ,# \inst_counterx|un_bin_counter\ [0] $end
$var wire 1 -# \inst_countery|un_bin_counter\ [3] $end
$var wire 1 .# \inst_countery|un_bin_counter\ [2] $end
$var wire 1 /# \inst_countery|un_bin_counter\ [1] $end
$var wire 1 0# \inst_countery|un_bin_counter\ [0] $end
$var wire 1 1# \inst_Bi_shift_reg|sreg\ [3] $end
$var wire 1 2# \inst_Bi_shift_reg|sreg\ [2] $end
$var wire 1 3# \inst_Bi_shift_reg|sreg\ [1] $end
$var wire 1 4# \inst_Bi_shift_reg|sreg\ [0] $end
$var wire 1 5# \inst_registerx|output\ [3] $end
$var wire 1 6# \inst_registerx|output\ [2] $end
$var wire 1 7# \inst_registerx|output\ [1] $end
$var wire 1 8# \inst_registerx|output\ [0] $end
$var wire 1 9# \inst_registery|output\ [3] $end
$var wire 1 :# \inst_registery|output\ [2] $end
$var wire 1 ;# \inst_registery|output\ [1] $end
$var wire 1 <# \inst_registery|output\ [0] $end
$var wire 1 =# \inst_grappler|ALT_INV_Grappler_on~0_combout\ $end
$var wire 1 ># \inst_sev_mux|ALT_INV_clk_proc:COUNT[10]~q\ $end
$upscope $end
$upscope $end
$enddefinitions $end
#0
$dumpvars
0!
0"
1#
0$
0-
12
03
0S
1T
xU
1V
1W
1X
1Y
1Z
1[
0\
1#!
0$!
0%!
0&!
1.!
0/!
00!
01!
z2!
03!
04!
05!
06!
07!
08!
09!
0:!
0;!
0<!
0=!
0>!
0?!
0@!
0A!
0B!
0C!
0D!
0E!
0F!
0G!
0H!
0I!
0J!
1K!
0L!
0M!
0N!
0O!
0P!
0Q!
0R!
1S!
0T!
0U!
1V!
1W!
0X!
1Y!
1Z!
1[!
0\!
1]!
1^!
1_!
1`!
0a!
1b!
0c!
0d!
1e!
1f!
0g!
1h!
0i!
1j!
0k!
0l!
0m!
0n!
0o!
0p!
0q!
0r!
1s!
0t!
0u!
1v!
0w!
xx!
0y!
1z!
1{!
1|!
1}!
0~!
0!"
0""
0#"
1$"
0%"
0&"
0'"
0("
0)"
0*"
0+"
0,"
0-"
0."
0/"
00"
01"
02"
03"
04"
05"
16"
07"
08"
09"
x:"
0;"
0<"
1="
0>"
0?"
0@"
0A"
0B"
1C"
0D"
0E"
0F"
0G"
0H"
1I"
0J"
0K"
0L"
0M"
0N"
0O"
1P"
0Q"
0R"
0S"
0T"
0U"
1V"
0W"
0X"
0Y"
0Z"
0["
1\"
0]"
0^"
0_"
0`"
0a"
1b"
0c"
0d"
0e"
0f"
0g"
0h"
0i"
0j"
0k"
0l"
0m"
1n"
0o"
1p"
0q"
0r"
0s"
0t"
0u"
0v"
0w"
0x"
0y"
1z"
0{"
0|"
0}"
0~"
0!#
0"#
0##
0$#
0%#
0&#
0'#
0(#
0=#
1>#
0C
0D
0E
0F
0G
0H
0I
0J
0K
0L
0M
0N
0O
0P
0Q
0R
0.
1/
10
11
1;
1<
1=
0>
0?
1@
1A
0B
0]
1^
1_
1`
1a
1b
1c
0d
0e
1f
1g
0h
0i
0j
0k
0l
0m
0n
0o
0p
0q
0r
0s
0t
0u
0v
0w
0x
0y
0z
0{
0|
0}
0~
0!!
0"!
z'!
0(!
0)!
0*!
0+!
0,!
0-!
0)#
0*#
0+#
0,#
0-#
0.#
0/#
00#
01#
02#
03#
04#
05#
06#
07#
08#
09#
0:#
0;#
0<#
0%
0&
0'
0(
0)
0*
0+
0,
z4
05
06
07
08
09
0:
$end
#5000
1!
1\
1U!
1J"
0I"
1K"
#10000
0!
0\
0U!
#15000
1!
1\
1U!
0J"
1L"
1I"
#20000
0!
1.
0\
1]
1X!
0U!
#25000
1!
1\
1U!
1J"
0I"
0K"
1M"
1N"
#30000
0!
0/
0\
0^
0V!
0U!
0s!
1t!
13"
0C"
1D"
1:!
1i
1%
#35000
1!
1\
1U!
15#
16#
1:#
1;#
17#
0J"
0L"
1O"
1<!
1@!
1A!
1=!
1>!
0N"
0P"
1I"
0M"
15"
18"
1l!
1q!
1i!
0{!
0`!
17"
1s
1w
1v
1r
1q
1r!
1m!
1A"
0|!
1B"
1N"
1P"
1Q"
1I
1H
1G
1Q
1P
0K!
0Q"
03"
0#!
0:!
0#
0i
0%
#40000
0!
0\
0U!
#45000
1!
1\
1U!
1J"
0I"
1K"
#50000
0!
1/
0\
1^
1V!
0U!
1s!
1w!
19"
1C"
1E"
1:"
1x!
1u!
1c!
1y!
1;"
1F"
0]!
0_!
0="
0e!
0z!
0h!
#55000
1!
1\
1U!
10#
1,#
0J"
1L"
1C!
1G!
1I"
1\!
0F"
1G"
1l"
1~"
0c!
1d!
1H"
1m"
1!#
1|
1"!
1e!
1"#
0n"
1h"
1]!
1F
1N
z0!
02!
1P!
z,!
0'!
1+!
z9
18
04
#60000
0!
0\
0U!
#65000
1!
1\
1U!
1+#
00#
1/#
0,#
1J"
0C!
1H!
0G!
1D!
0I"
0K"
1M"
0\!
1F"
0e!
0f!
1c!
0d!
0l!
0q!
0m"
1|"
0!#
1$#
1'#
0]!
0^!
05"
08"
0l"
1{"
0~"
1##
1&#
0|
1!!
0"!
1{
1_!
1(#
1%#
0"#
1}"
1n"
1e!
1f!
1z!
1]!
1^!
0N"
0P"
0F
1E
0N
1M
z2!
1O!
0P!
1Q!
1R!
1Q"
0_!
0z!
z'!
1-!
0+!
1*!
1)!
1:
08
17
16
z4
#70000
0!
0\
0U!
#75000
1!
1\
1U!
10#
1,#
0J"
0L"
0O"
1R"
1C!
1G!
0Q"
1S"
1N"
1P"
1I"
0M"
1\!
15"
1?"
0F"
1~"
0&#
0c!
1d!
1o!
1q!
1!#
0'#
1|
1"!
0e!
0f!
0(#
1"#
0]!
0^!
0N"
1Q"
0S"
1T"
1F
1N
1P!
0R!
0T"
1_!
1z!
1+!
0)!
18
06
#80000
0!
0\
0U!
#85000
1!
1\
1U!
0+#
1*#
00#
0/#
1.#
0,#
1J"
0C!
1I!
0H!
0G!
1E!
0D!
0I"
1K"
0\!
1F"
0z!
1g!
0i!
1{!
1e!
1f!
1c!
0d!
1l!
0o!
1j"
0|"
0$#
0_!
1<"
1]!
1^!
18"
0?"
1i"
0{"
0##
0|
1~
0!!
0"!
1z
0{
1_!
0<"
1="
0%#
0}"
1k"
0e!
1z!
0g!
1h!
0]!
0F
0E
1D
0N
0M
1L
z1!
0O!
0Q!
0h!
0="
z(!
0-!
0*!
0:
07
z5
#90000
0!
0\
0U!
#95000
1!
1\
1U!
10#
1,#
0J"
1L"
1C!
1G!
1I"
1\!
0F"
0G"
1{"
1##
0c!
1d!
0H"
1|"
1$#
1|
1"!
1e!
1%#
1}"
0h"
1]!
1F
1N
00!
1O!
1Q!
0,!
1-!
1*!
1:
09
17
#100000
0!
0\
0U!
#105000
1!
1\
1U!
1+#
00#
1/#
0,#
1J"
0C!
1H!
0G!
1D!
0I"
0K"
1M"
0\!
1F"
0e!
0f!
1c!
0d!
0l!
0q!
1'#
0]!
0^!
05"
08"
1&#
0|
1!!
0"!
1{
0_!
1<"
1(#
0r!
0m!
0w!
1e!
1f!
0z!
1g!
1]!
1^!
1N"
0F
1E
0N
1M
1R!
1_!
0<"
1h!
1z!
0g!
0t!
1="
1)!
0u!
0h!
0="
16
0c!
0y!
0e!
0f!
0z!
1g!
1h!
0h!
1z!
#110000
0!
0\
0U!
#115000
1!
1\
1U!
1,#
0J"
0L"
1O"
1C!
0N"
0P"
1I"
0M"
1\!
15"
1?"
0F"
1G"
0i"
1l"
0##
0&#
1|
0]!
0^!
1N"
1P"
0Q"
1S"
1F
1T"
1Q"
0S"
0_!
1<"
1="
0T"
#120000
0!
0\
0U!
#125000
1!
1\
1U!
0+#
0*#
1)#
0,#
1J"
0C!
1F!
0E!
0D!
0I"
1K"
0\!
1F"
0="
1_!
0<"
1]!
1^!
18"
0?"
1i"
0l"
1##
1&#
0|
1y
0z
0{
0_!
1="
0]!
0F
0E
0D
1C
#130000
0!
0\
0U!
#135000
1!
1\
1U!
1,#
0J"
1L"
1C!
1I"
1\!
0F"
0&#
1|
1]!
1F
#140000
0!
0\
0U!
#145000
1!
1\
1U!
1+#
0,#
1J"
0C!
1D!
0I"
0K"
1M"
0\!
1F"
0]!
0^!
05"
08"
0##
1&#
0|
1{
1_!
1]!
1^!
0N"
0P"
0F
1E
0Q"
1S"
0_!
1T"
#150000
0!
0\
0U!
#155000
1!
1\
1U!
1,#
0J"
0L"
0O"
0R"
1U"
1C!
0T"
0V"
1Q"
0S"
1N"
1P"
1I"
0M"
1\!
15"
1?"
0F"
0G"
0{"
1##
1|
0]!
0^!
0N"
0Q"
1T"
1V"
1W"
1F
0W"
1_!
#160000
0!
0\
0U!
#165000
1!
1\
1U!
0+#
1*#
0,#
1J"
0C!
1E!
0D!
0I"
1K"
0\!
1F"
0_!
1<"
1`!
07"
1]!
1^!
18"
0?"
1G"
1l"
1{"
0##
0&#
0|
1z
0{
1_!
0<"
0="
0]!
0F
0E
1D
1="
#170000
0!
0\
0U!
#175000
1!
1\
1U!
1,#
0J"
1L"
1C!
1I"
1\!
0F"
0G"
0i"
0~"
1|
1]!
1F
#180000
0!
0\
0U!
#185000
1!
1\
1U!
1+#
0,#
1J"
0C!
1D!
0I"
0K"
1M"
0\!
1F"
0]!
0^!
05"
08"
1i"
0l"
1##
1&#
0|
1{
09"
0A"
1|!
0B"
0_!
1<"
1]!
1^!
1N"
0F
1E
1K!
1_!
0<"
0="
0D"
1#!
0E"
1="
1#
0;"
0F"
0]!
0^!
0_!
1<"
0="
1="
1_!
#190000
0!
0\
0U!
#195000
1!
1\
1U!
0J"
0L"
1O"
0N"
0P"
1I"
0M"
1N"
1P"
1Q"
0Q"
#200000
0!
0\
0U!
#205000
1!
1\
1U!
1J"
0I"
1K"
#210000
0!
00
0\
0_
0$"
0U!
1%"
1'"
#215000
1!
1\
1U!
1&"
1("
0J"
1L"
1I"
#220000
0!
0\
0U!
#225000
1!
1\
1U!
1J"
0I"
0K"
1M"
0N"
0P"
1Q"
#230000
0!
10
0\
1_
1$"
0U!
0'"
1)"
1*"
#235000
1!
1\
1U!
0("
1+"
0J"
0L"
0O"
1R"
1M!
0Q"
1S"
1N"
1P"
1I"
0M"
1,"
12"
0)"
1-"
1%!
1N!
1L!
0N"
1Q"
0S"
0T"
0V"
1-
1&!
1$!
1W"
1T"
1V"
1"
1$
0W"
#240000
0!
0\
0U!
#245000
1!
1\
1U!
11#
1J"
18!
0I"
1K"
0}!
1."
11"
1k
1'
#250000
0!
0<
0\
0b
0[!
0U!
#255000
1!
1\
1U!
12#
0J"
1L"
17!
1I"
1}!
1/"
1l
1(
#260000
0!
0\
0U!
#265000
1!
1\
1U!
13#
1J"
16!
0I"
0K"
1M"
0Y!
1""
10"
1m
1#"
0*"
1N"
1)
0%"
#270000
0!
0\
0U!
#275000
1!
1\
1U!
0&"
0+"
14#
0J"
0L"
1O"
15!
0M!
0N"
0P"
1I"
0M"
1Y!
0#"
0""
00"
1r"
0-"
1n
0%!
0N!
1N"
1P"
0Q"
1S"
1*
0-
0&!
0T"
0V"
1Q"
0S"
0"
1T"
1V"
1W"
0W"
#280000
0!
0\
0U!
#285000
1!
1\
1U!
1J"
0I"
1K"
#290000
0!
01
0\
0`
0p"
0U!
1v"
1x"
#295000
1!
1\
1U!
0J"
1L"
1w"
1y"
1I"
#300000
0!
0\
0U!
#305000
1!
1\
1U!
1J"
0I"
0K"
1M"
0N"
0P"
0Q"
1S"
0T"
0V"
1W"
#310000
0!
11
0\
1`
1p"
0U!
1t"
0x"
#315000
1!
1\
1U!
0J"
0L"
0O"
0R"
0U"
1X"
1u"
0y"
0z"
0W"
1Y"
1T"
1V"
1Q"
0S"
1N"
1P"
1I"
0M"
1=#
0N"
0Q"
0T"
1W"
0Y"
1Z"
14!
0Z"
1o
1+
#320000
0!
0\
0U!
#325000
1!
1\
1U!
1J"
0I"
1K"
#330000
0!
0\
0U!
#335000
1!
1\
1U!
0J"
1L"
1I"
#340000
0!
0\
0U!
#345000
1!
1\
1U!
1J"
0I"
0K"
1M"
1N"
#350000
0!
0\
0U!
#355000
1!
1\
1U!
0J"
0L"
1O"
0N"
0P"
1I"
0M"
1N"
1P"
1Q"
0Q"
#360000
0!
0\
0U!
#365000
1!
1\
1U!
1J"
0I"
1K"
#370000
0!
0\
0U!
#375000
1!
1\
1U!
0J"
1L"
1I"
#380000
0!
0\
0U!
#385000
1!
1\
1U!
1J"
0I"
0K"
1M"
0N"
0P"
1Q"
#390000
0!
0.
0\
0]
0X!
0U!
05#
06#
0+#
0*#
0:#
0/#
0;#
0.#
01#
02#
03#
04#
07#
0)#
0u"
0w"
0F!
0<!
05!
06!
07!
08!
0I!
0@!
0H!
0A!
0E!
0D!
0=!
0>!
0t"
1z"
0v"
0="
0,"
0/"
0."
01"
0z!
1e!
1f!
0j"
0|"
0!#
0$#
0'#
0_!
1]!
1^!
0i"
0{"
0##
0&#
0=#
0y
0s
0n
0m
0l
0k
0~
0w
0!!
0v
0z
0{
0r
0q
1_!
0<"
0(#
0%#
0"#
0}"
0k"
1z!
0g!
02"
0r"
0E
0D
0C
0I
0H
0G
0*
0)
0(
0'
0M
0L
0Q
0P
04!
0L!
01!
0O!
0P!
0Q!
0R!
1h!
1="
0o
0$!
0(!
0-!
0+!
0*!
0)!
0+
0$
0:
08
07
06
05
#395000
1!
1\
1U!
0J"
0L"
0O"
1R"
0Q"
1S"
1N"
1P"
1I"
0M"
0N"
1Q"
0S"
1T"
0T"
#400000
0!
0\
0U!
#405000
1!
1\
1U!
1J"
0I"
1K"
#410000
0!
1.
0\
1]
1X!
0U!
#415000
1!
1\
1U!
0J"
1L"
1I"
#420000
0!
0\
0U!
#425000
1!
1\
1U!
1J"
0I"
0K"
1M"
1N"
#430000
0!
0\
0U!
